processor/testbenchfinal.vcd
$date
	Sun Oct 23 21:33:55 2022
$end
$version
	Icarus Verilog
$end
$timescale
	1s
$end
$scope module finalTestBench $end
$var wire 1 ! rst $end
$var reg 1 " clk $end
$scope module topLevel $end
$var wire 1 " clk $end
$var wire 1 # readEnable $end
$var wire 1 ! rst $end
$var wire 1 $ writeEnable $end
$var wire 5 % writeRegW [4:0] $end
$var wire 5 & writeRegM [4:0] $end
$var wire 5 ' writeRegE [4:0] $end
$var wire 32 ( writeDataM [31:0] $end
$var wire 32 ) writeDataE [31:0] $end
$var wire 32 * valueOutput2R [31:0] $end
$var wire 32 + valueOutput1R [31:0] $end
$var wire 32 , signImmE [31:0] $end
$var wire 32 - signImmD [31:0] $end
$var wire 32 . resultW [31:0] $end
$var wire 1 / regWriteW $end
$var wire 1 0 regWriteM $end
$var wire 1 1 regWriteE $end
$var wire 1 2 regWriteD $end
$var wire 1 3 regDstE $end
$var wire 1 4 regDstD $end
$var wire 32 5 readDataW [31:0] $end
$var wire 32 6 readDataM [31:0] $end
$var wire 1 7 memWriteM $end
$var wire 1 8 memWriteE $end
$var wire 1 9 memWriteD $end
$var wire 1 : memToRegW $end
$var wire 1 ; memToRegM $end
$var wire 1 < memToRegE $end
$var wire 1 = memToRegD $end
$var wire 32 > instructionD [31:0] $end
$var wire 32 ? instruction [31:0] $end
$var wire 5 @ index2 [4:0] $end
$var wire 5 A index1 [4:0] $end
$var wire 1 B hazardDetected $end
$var wire 1 C flag2 $end
$var wire 1 D flag1 $end
$var wire 1 E flag $end
$var wire 1 F equalD $end
$var wire 32 G data22 [31:0] $end
$var wire 32 H data2 [31:0] $end
$var wire 32 I data11 [31:0] $end
$var wire 32 J data1 [31:0] $end
$var wire 1 K branchD $end
$var wire 32 L address [31:0] $end
$var wire 1 M active $end
$var wire 32 N SrcBE [31:0] $end
$var wire 32 O SrcAE [31:0] $end
$var wire 5 P RtE [4:0] $end
$var wire 5 Q RtD [4:0] $end
$var wire 5 R RsE [4:0] $end
$var wire 5 S RsD [4:0] $end
$var wire 5 T RdE [4:0] $end
$var wire 5 U RdD [4:0] $end
$var wire 32 V PCbranchD [31:0] $end
$var wire 1 W PCSrcD $end
$var wire 32 X PCReg [31:0] $end
$var wire 32 Y PC [31:0] $end
$var wire 1 Z BNEType $end
$var wire 32 [ AluOutE [31:0] $end
$var wire 1 \ ALUSrcE $end
$var wire 1 ] ALUSrcD $end
$var wire 32 ^ ALUOutW [31:0] $end
$var wire 32 _ ALUOutM [31:0] $end
$var wire 2 ` ALUOpE [1:0] $end
$var wire 2 a ALUOp [1:0] $end
$var wire 4 b ALUControlE [3:0] $end
$var wire 4 c ALUControlD [3:0] $end
$scope module ALU $end
$var wire 32 d input2 [31:0] $end
$var wire 32 e input1 [31:0] $end
$var wire 4 f ex_cmd [3:0] $end
$var wire 1 K branchD $end
$var wire 2 g ALUOp [1:0] $end
$var reg 32 h alu_out [31:0] $end
$var reg 1 i branchPresent $end
$var reg 1 E flag $end
$upscope $end
$scope module IDtoExe_top $end
$var wire 1 " clk $end
$var wire 32 j signImmD [31:0] $end
$var wire 1 2 regWriteD $end
$var wire 1 4 regDstD $end
$var wire 1 9 memWriteD $end
$var wire 1 = memToRegD $end
$var wire 1 B hazardDetected $end
$var wire 32 k data2 [31:0] $end
$var wire 32 l data1 [31:0] $end
$var wire 5 m RtD [4:0] $end
$var wire 5 n RsD [4:0] $end
$var wire 5 o RdD [4:0] $end
$var wire 1 ] ALUSrcD $end
$var wire 2 p ALUOp [1:0] $end
$var wire 4 q ALUControlD [3:0] $end
$var reg 4 r ALUControlE [3:0] $end
$var reg 2 s ALUOpE [1:0] $end
$var reg 1 \ ALUSrcE $end
$var reg 5 t RdE [4:0] $end
$var reg 5 u RsE [4:0] $end
$var reg 5 v RtE [4:0] $end
$var reg 32 w data11 [31:0] $end
$var reg 32 x data22 [31:0] $end
$var reg 1 < memToRegE $end
$var reg 1 8 memWriteE $end
$var reg 1 3 regDstE $end
$var reg 1 1 regWriteE $end
$var reg 32 y signImmE [31:0] $end
$upscope $end
$scope module IFtoIDReg_top $end
$var wire 1 " clk $end
$var wire 1 ! reset $end
$var wire 32 z outPC [31:0] $end
$var wire 32 { instruction [31:0] $end
$var reg 32 | PCReg [31:0] $end
$var reg 32 } instructionD [31:0] $end
$upscope $end
$scope module cu $end
$var wire 1 " clk $end
$var wire 32 ~ instruction [31:0] $end
$var reg 4 !" ALUControlD [3:0] $end
$var reg 2 "" ALUOp [1:0] $end
$var reg 1 ] ALUSrcD $end
$var reg 1 Z BNEType $end
$var reg 1 K branchD $end
$var reg 1 = memToRegD $end
$var reg 1 9 memWriteD $end
$var reg 1 4 regDstD $end
$var reg 1 2 regWriteD $end
$upscope $end
$scope module dataMem $end
$var event 1 #" _s4 $end
$var wire 1 " clk $end
$var wire 32 $" outputMem [31:0] $end
$var wire 1 7 rw $end
$var wire 32 %" inputMem [31:0] $end
$var wire 32 &" indexData [31:0] $end
$var wire 1 M active $end
$var reg 32 '" outputMemReg [31:0] $end
$var integer 32 (" i [31:0] $end
$upscope $end
$scope module exeToMemReg_top $end
$var wire 32 )" ALUOut [31:0] $end
$var wire 1 " clk $end
$var wire 1 < memToRegE $end
$var wire 1 8 memWriteE $end
$var wire 1 1 regWriteE $end
$var wire 5 *" writeRegE [4:0] $end
$var wire 32 +" writeDataE [31:0] $end
$var reg 32 ," ALUOutM [31:0] $end
$var reg 1 ; memToRegM $end
$var reg 1 7 memWriteM $end
$var reg 1 0 regWriteM $end
$var reg 32 -" writeDataM [31:0] $end
$var reg 5 ." writeRegM [4:0] $end
$upscope $end
$scope module instructionDecode_p $end
$var wire 4 /" ALUControlD [3:0] $end
$var wire 2 0" ALUOp [1:0] $end
$var wire 1 ] ALUSrcD $end
$var wire 1 Z BNEType $end
$var wire 32 1" PCReg [31:0] $end
$var wire 1 K branchD $end
$var wire 1 " clk $end
$var wire 1 E flagALU $end
$var wire 32 2" instruction [31:0] $end
$var wire 32 3" valueInput [31:0] $end
$var wire 32 4" valueOutput2 [31:0] $end
$var wire 32 5" valueOutput1 [31:0] $end
$var wire 1 C flag2 $end
$var wire 1 D flag1 $end
$var reg 1 W PCSrcD $end
$var reg 32 6" PCbranchD [31:0] $end
$var reg 5 7" RdD [4:0] $end
$var reg 5 8" RsD [4:0] $end
$var reg 5 9" RtD [4:0] $end
$var reg 32 :" data1 [31:0] $end
$var reg 32 ;" data2 [31:0] $end
$var reg 32 <" data2_temp [31:0] $end
$var reg 1 F equalD $end
$var reg 1 B hazardDetected $end
$var reg 5 =" index1 [4:0] $end
$var reg 5 >" index2 [4:0] $end
$var reg 1 ?" notEqualD $end
$var reg 32 @" signImmD [31:0] $end
$upscope $end
$scope module instructionExecution_top $end
$var wire 4 A" ALUControlE [3:0] $end
$var wire 2 B" ALUOpE [1:0] $end
$var wire 1 \ ALUSrcE $end
$var wire 32 C" AluOutE [31:0] $end
$var wire 5 D" RdE [4:0] $end
$var wire 5 E" RsE [4:0] $end
$var wire 5 F" RtE [4:0] $end
$var wire 1 " clk $end
$var wire 1 3 regDstE $end
$var wire 32 G" signImmE [31:0] $end
$var wire 32 H" value1 [31:0] $end
$var wire 32 I" value2 [31:0] $end
$var reg 32 J" SrcAE [31:0] $end
$var reg 32 K" SrcBE [31:0] $end
$var reg 32 L" writeDataE [31:0] $end
$var reg 5 M" writeRegE [4:0] $end
$upscope $end
$scope module instructionFetch_top $end
$var wire 1 W PCSrcD $end
$var wire 32 N" PCbranchD [31:0] $end
$var wire 1 " clk $end
$var wire 1 B hazardDetected $end
$var wire 32 O" instruction [31:0] $end
$var wire 32 P" PC [31:0] $end
$var reg 32 Q" PCReg [31:0] $end
$var reg 32 R" newPCreg [31:0] $end
$upscope $end
$scope module instructionMem_top $end
$var wire 32 S" PC [31:0] $end
$var wire 1 T" rst $end
$var wire 32 U" instruction [31:0] $end
$upscope $end
$scope module memToWBReg_top $end
$var wire 32 V" ALUOut [31:0] $end
$var wire 1 " clk $end
$var wire 1 ; memToRegM $end
$var wire 32 W" readDataM [31:0] $end
$var wire 1 0 regWriteM $end
$var wire 5 X" writeRegM [4:0] $end
$var reg 32 Y" ALUOutW [31:0] $end
$var reg 1 : memToRegW $end
$var reg 32 Z" readDataW [31:0] $end
$var reg 1 / regWriteW $end
$var reg 5 [" writeRegW [4:0] $end
$upscope $end
$scope module memory_top $end
$var wire 32 \" ALUOutM [31:0] $end
$var wire 1 " clk $end
$var wire 1 7 memWriteM $end
$var reg 1 M active $end
$var reg 32 ]" address [31:0] $end
$upscope $end
$scope module regFile $end
$var wire 5 ^" RdD [4:0] $end
$var wire 5 _" RtD [4:0] $end
$var wire 1 " clk $end
$var wire 5 `" index1 [4:0] $end
$var wire 5 a" index2 [4:0] $end
$var wire 5 b" indexWB [4:0] $end
$var wire 1 # readEnable $end
$var wire 1 4 regDstD $end
$var wire 1 2 regWriteD $end
$var wire 1 / regWriteW $end
$var wire 1 $ writeEnable $end
$var wire 32 c" valueInput [31:0] $end
$var reg 1 D flagOutput1 $end
$var reg 1 C flagOutput2 $end
$var reg 32 d" valueOutput1 [31:0] $end
$var reg 32 e" valueOutput2 [31:0] $end
$var integer 32 f" i [31:0] $end
$upscope $end
$scope module writeBack_top $end
$var wire 32 g" ALUOutW [31:0] $end
$var wire 1 " clk $end
$var wire 1 : memToRegW $end
$var wire 32 h" readDataW [31:0] $end
$var wire 1 / regWriteW $end
$var wire 5 i" writeRegW [4:0] $end
$var reg 32 j" resultW [31:0] $end
$upscope $end
$upscope $end
$upscope $end
$enddefinitions $end
#0
$dumpvars
bx j"
bz i"
bx h"
bx g"
b100000 f"
bx e"
bx d"
bx c"
bx b"
bx a"
bx `"
bx _"
bx ^"
bx ]"
bx \"
bx ["
bx Z"
bx Y"
bx X"
bx W"
bx V"
b100100000000010000000000000000 U"
zT"
b0 S"
b0 R"
b0 Q"
b0 P"
b100100000000010000000000000000 O"
bx N"
bx M"
bx L"
bx K"
bx J"
bx I"
bx H"
bx G"
bx F"
bx E"
bx D"
bx C"
bx B"
bx A"
bx @"
x?"
bx >"
bx ="
bx <"
bx ;"
bx :"
bx 9"
bx 8"
bx 7"
bx 6"
bx 5"
bx 4"
bz 3"
bx 2"
bx 1"
bz 0"
bz /"
bx ."
bx -"
bx ,"
bx +"
bx *"
bx )"
b1000000000 ("
bx '"
bx &"
bx %"
bx $"
1#"
bx ""
bx !"
bx ~
bx }
bx |
b100100000000010000000000000000 {
b0 z
bx y
bx x
bx w
bx v
bx u
bx t
bx s
bx r
bx q
bx p
bx o
bx n
bx m
bx l
bx k
bx j
xi
bx h
bx g
bx f
bx e
bx d
bx c
bx b
bx a
bx `
bx _
bx ^
x]
x\
bx [
xZ
b0 Y
bx X
xW
bx V
bx U
bx T
bx S
bx R
bx Q
bx P
bx O
bx N
1M
bx L
xK
bx J
bx I
bx H
bx G
xF
0E
xD
xC
0B
bx A
bx @
b100100000000010000000000000000 ?
bx >
x=
x<
x;
x:
x9
x8
x7
bx 6
bx 5
x4
x3
x2
x1
x0
x/
bx .
bx -
bx ,
bx +
bx *
bx )
bx (
bx '
bx &
bx %
z$
z#
1"
0!
$end
#50
b0 H
b0 k
b0 ;"
b0 J
b0 l
b0 :"
1C
1D
b0 *
b0 4"
b0 e"
b0 +
b0 5"
b0 d"
0K
04
1]
09
0=
b10 c
b10 q
b10 !"
12
0Z
b10 a
b10 p
b10 ""
b1 @
b1 >"
b1 a"
b0 A
b0 ="
b0 `"
b100 X
b100 |
b100 1"
b100100000000010000000000000000 >
b100100000000010000000000000000 }
b100100000000010000000000000000 ~
b100100000000010000000000000000 2"
0"
#100
0C
b0 V
b0 6"
b0 N"
0W
0?"
1F
b0 U
b0 o
b0 7"
b0 ^"
b1 Q
b1 m
b1 9"
b1 _"
b0 S
b0 n
b0 8"
b0 -
b0 j
b0 @"
1"
#150
b10 `
b10 g
b10 s
b10 B"
b0 ,
b0 y
b0 G"
b0 G
b0 x
b0 I"
b0 I
b0 w
b0 H"
b0 T
b0 t
b0 D"
b1 P
b1 v
b1 F"
b0 R
b0 u
b0 E"
03
1\
b10 b
b10 f
b10 r
b10 A"
08
0<
11
0"
#200
b0 [
b0 h
b0 )"
b0 C"
b1 '
b1 *"
b1 M"
b0 N
b0 d
b0 K"
b0 )
b0 +"
b0 L"
b0 O
b0 e
b0 J"
b100 Q"
1"
#248
b100100000000100000000000000001 ?
b100100000000100000000000000001 {
b100100000000100000000000000001 O"
b100100000000100000000000000001 U"
b100 Y
b100 z
b100 P"
b100 R"
b100 S"
#250
1C
b10 @
b10 >"
b10 a"
b0 6
b0 $"
b0 W"
b0 '"
b1000 X
b1000 |
b1000 1"
b100100000000100000000000000001 >
b100100000000100000000000000001 }
b100100000000100000000000000001 ~
b100100000000100000000000000001 2"
b0 (
b0 %"
b0 -"
b0 _
b0 ,"
b0 V"
b0 \"
b1 &
b1 ."
b1 X"
07
0;
10
0"
#300
0C
b0 L
b0 &"
b0 ]"
b1000 Q"
b10 Q
b10 m
b10 9"
b10 _"
b1 H
b1 k
b1 ;"
b1 -
b1 j
b1 @"
1"
#348
b100100000111110000000000000000 ?
b100100000111110000000000000000 {
b100100000111110000000000000000 O"
b100100000111110000000000000000 U"
b1000 Y
b1000 z
b1000 P"
b1000 R"
b1000 S"
#350
1C
b0 H
b0 k
b0 ;"
b11111 @
b11111 >"
b11111 a"
b1100 X
b1100 |
b1100 1"
b100100000111110000000000000000 >
b100100000111110000000000000000 }
b100100000111110000000000000000 ~
b100100000111110000000000000000 2"
b0 ^
b0 Y"
b0 g"
b0 5
b0 Z"
b0 h"
b1 %
b1 ["
b1 b"
0:
1/
b1 ,
b1 y
b1 G"
b1 G
b1 x
b1 I"
b10 P
b10 v
b10 F"
0"
#400
0C
b1 [
b1 h
b1 )"
b1 C"
b0 .
b0 c"
b0 j"
b1000 V
b1000 6"
b1000 N"
b10 '
b10 *"
b10 M"
b1 N
b1 d
b1 K"
b1 )
b1 +"
b1 L"
b1100 Q"
b11111 Q
b11111 m
b11111 9"
b11111 _"
b0 -
b0 j
b0 @"
1"
#448
b100100000000110000000000001001 ?
b100100000000110000000000001001 {
b100100000000110000000000001001 O"
b100100000000110000000000001001 U"
b1100 Y
b1100 z
b1100 P"
b1100 R"
b1100 S"
#450
1C
b11 @
b11 >"
b11 a"
b10000 X
b10000 |
b10000 1"
b100100000000110000000000001001 >
b100100000000110000000000001001 }
b100100000000110000000000001001 ~
b100100000000110000000000001001 2"
b0 ,
b0 y
b0 G"
b0 G
b0 x
b0 I"
b11111 P
b11111 v
b11111 F"
b1 (
b1 %"
b1 -"
b1 _
b1 ,"
b1 V"
b1 \"
b10 &
b10 ."
b10 X"
0"
#500
0C
b0 [
b0 h
b0 )"
b0 C"
b1 L
b1 &"
b1 ]"
b11111 '
b11111 *"
b11111 M"
b0 N
b0 d
b0 K"
b0 )
b0 +"
b0 L"
b11111111111111111111111111101000 V
b11111111111111111111111111101000 6"
b11111111111111111111111111101000 N"
b10000 Q"
b11 Q
b11 m
b11 9"
b11 _"
b1001 H
b1001 k
b1001 ;"
b1001 -
b1001 j
b1001 @"
1"
#548
b100100000001000000000000000010 ?
b100100000001000000000000000010 {
b100100000001000000000000000010 O"
b100100000001000000000000000010 U"
b10000 Y
b10000 z
b10000 P"
b10000 R"
b10000 S"
#550
1C
b0 H
b0 k
b0 ;"
b100 @
b100 >"
b100 a"
b10100 X
b10100 |
b10100 1"
b100100000001000000000000000010 >
b100100000001000000000000000010 }
b100100000001000000000000000010 ~
b100100000001000000000000000010 2"
b1 ^
b1 Y"
b1 g"
b10 %
b10 ["
b10 b"
b0 (
b0 %"
b0 -"
b0 _
b0 ,"
b0 V"
b0 \"
b11111 &
b11111 ."
b11111 X"
b1001 ,
b1001 y
b1001 G"
b1001 G
b1001 x
b1001 I"
b11 P
b11 v
b11 F"
0"
#600
0C
b1001 [
b1001 h
b1001 )"
b1001 C"
b1 .
b1 c"
b1 j"
b1000 V
b1000 6"
b1000 N"
b11 '
b11 *"
b11 M"
b1001 N
b1001 d
b1001 K"
b1001 )
b1001 +"
b1001 L"
b0 L
b0 &"
b0 ]"
b10100 Q"
b100 Q
b100 m
b100 9"
b100 _"
b10 H
b10 k
b10 ;"
b10 -
b10 j
b10 @"
1"
#648
b1000100010100000100000 ?
b1000100010100000100000 {
b1000100010100000100000 O"
b1000100010100000100000 U"
b10100 Y
b10100 z
b10100 P"
b10100 R"
b10100 S"
#650
1C
b1 *
b1 4"
b1 e"
0]
14
b1 H
b1 k
b1 ;"
b10 @
b10 >"
b10 a"
b1 A
b1 ="
b1 `"
b11000 X
b11000 |
b11000 1"
b1000100010100000100000 >
b1000100010100000100000 }
b1000100010100000100000 ~
b1000100010100000100000 2"
b10 ,
b10 y
b10 G"
b10 G
b10 x
b10 I"
b100 P
b100 v
b100 F"
b1001 (
b1001 %"
b1001 -"
b1001 _
b1001 ,"
b1001 V"
b1001 \"
b11 &
b11 ."
b11 X"
b0 ^
b0 Y"
b0 g"
b11111 %
b11111 ["
b11111 b"
0"
#700
b10 [
b10 h
b10 )"
b10 C"
b0 .
b0 c"
b0 j"
b1001 L
b1001 &"
b1001 ]"
b100 '
b100 *"
b100 M"
b10 N
b10 d
b10 K"
b10 )
b10 +"
b10 L"
b11111111111111110101111110010100 V
b11111111111111110101111110010100 6"
b11111111111111110101111110010100 N"
b11000 Q"
1?"
0F
b101 U
b101 o
b101 7"
b101 ^"
b10 Q
b10 m
b10 9"
b10 _"
b1 S
b1 n
b1 8"
b10100000100000 -
b10100000100000 j
b10100000100000 @"
1"
#748
b100100000111110000000000000000 ?
b100100000111110000000000000000 {
b100100000111110000000000000000 O"
b100100000111110000000000000000 U"
b11000 Y
b11000 z
b11000 P"
b11000 R"
b11000 S"
#750
b0 H
b0 k
b0 ;"
0D
b0 *
b0 4"
b0 e"
04
1]
b11111 @
b11111 >"
b11111 a"
b0 A
b0 ="
b0 `"
b11100 X
b11100 |
b11100 1"
b100100000111110000000000000000 >
b100100000111110000000000000000 }
b100100000111110000000000000000 ~
b100100000111110000000000000000 2"
b1001 ^
b1001 Y"
b1001 g"
b11 %
b11 ["
b11 b"
b10 (
b10 %"
b10 -"
b10 _
b10 ,"
b10 V"
b10 \"
b100 &
b100 ."
b100 X"
b10100000100000 ,
b10100000100000 y
b10100000100000 G"
b1 G
b1 x
b1 I"
b101 T
b101 t
b101 D"
b10 P
b10 v
b10 F"
b1 R
b1 u
b1 E"
13
0\
0"
#800
0C
b1 [
b1 h
b1 )"
b1 C"
b1001 .
b1001 c"
b1001 j"
b11000 V
b11000 6"
b11000 N"
b101 '
b101 *"
b101 M"
b1 N
b1 d
b1 K"
b1 )
b1 +"
b1 L"
b10 L
b10 &"
b10 ]"
b11100 Q"
0?"
1F
b0 U
b0 o
b0 7"
b0 ^"
b11111 Q
b11111 m
b11111 9"
b11111 _"
b0 S
b0 n
b0 8"
b0 -
b0 j
b0 @"
1"
#848
b100100000111100000000000000000 ?
b100100000111100000000000000000 {
b100100000111100000000000000000 O"
b100100000111100000000000000000 U"
b11100 Y
b11100 z
b11100 P"
b11100 R"
b11100 S"
#850
1C
b11110 @
b11110 >"
b11110 a"
b100000 X
b100000 |
b100000 1"
b100100000111100000000000000000 >
b100100000111100000000000000000 }
b100100000111100000000000000000 ~
b100100000111100000000000000000 2"
b0 ,
b0 y
b0 G"
b0 G
b0 x
b0 I"
b0 T
b0 t
b0 D"
b11111 P
b11111 v
b11111 F"
b0 R
b0 u
b0 E"
03
1\
b1 (
b1 %"
b1 -"
b1 _
b1 ,"
b1 V"
b1 \"
b101 &
b101 ."
b101 X"
b10 ^
b10 Y"
b10 g"
b100 %
b100 ["
b100 b"
0"
#900
0C
b0 [
b0 h
b0 )"
b0 C"
b10 .
b10 c"
b10 j"
b1 L
b1 &"
b1 ]"
b11111 '
b11111 *"
b11111 M"
b0 N
b0 d
b0 K"
b0 )
b0 +"
b0 L"
b11100 V
b11100 6"
b11100 N"
b100000 Q"
b11110 Q
b11110 m
b11110 9"
b11110 _"
1"
#948
b100100010000010000000000000000 ?
b100100010000010000000000000000 {
b100100010000010000000000000000 O"
b100100010000010000000000000000 U"
b100000 Y
b100000 z
b100000 P"
b100000 R"
b100000 S"
#950
b1 J
b1 l
b1 :"
1C
b1 +
b1 5"
b1 d"
b1 @
b1 >"
b1 a"
b10 A
b10 ="
b10 `"
b100100 X
b100100 |
b100100 1"
b100100010000010000000000000000 >
b100100010000010000000000000000 }
b100100010000010000000000000000 ~
b100100010000010000000000000000 2"
b1 ^
b1 Y"
b1 g"
b101 %
b101 ["
b101 b"
b0 (
b0 %"
b0 -"
b0 _
b0 ,"
b0 V"
b0 \"
b11111 &
b11111 ."
b11111 X"
b11110 P
b11110 v
b11110 F"
0"
#1000
0C
b1 .
b1 c"
b1 j"
b100000 V
b100000 6"
b100000 N"
b11110 '
b11110 *"
b11110 M"
b0 L
b0 &"
b0 ]"
b100100 Q"
1?"
0F
b1 Q
b1 m
b1 9"
b1 _"
b10 S
b10 n
b10 8"
1"
#1048
b100100101000100000000000000000 ?
b100100101000100000000000000000 {
b100100101000100000000000000000 O"
b100100101000100000000000000000 U"
b100100 Y
b100100 z
b100100 P"
b100100 R"
b100100 S"
#1050
b1 H
b1 k
b1 ;"
1D
b1 *
b1 4"
b1 e"
b10 @
b10 >"
b10 a"
b101 A
b101 ="
b101 `"
b101000 X
b101000 |
b101000 1"
b100100101000100000000000000000 >
b100100101000100000000000000000 }
b100100101000100000000000000000 ~
b100100101000100000000000000000 2"
b1 I
b1 w
b1 H"
b1 P
b1 v
b1 F"
b10 R
b10 u
b10 E"
b11110 &
b11110 ."
b11110 X"
b0 ^
b0 Y"
b0 g"
b11111 %
b11111 ["
b11111 b"
0"
#1100
b1 [
b1 h
b1 )"
b1 C"
b0 .
b0 c"
b0 j"
b1 '
b1 *"
b1 M"
b1 O
b1 e
b1 J"
b100100 V
b100100 6"
b100100 N"
b101000 Q"
0?"
1F
b10 Q
b10 m
b10 9"
b10 _"
b101 S
b101 n
b101 8"
b0 H
b0 k
b0 ;"
1"
#1148
b100100100001000000000000000001 ?
b100100100001000000000000000001 {
b100100100001000000000000000001 O"
b100100100001000000000000000001 U"
b101000 Y
b101000 z
b101000 P"
b101000 R"
b101000 S"
#1150
b10 J
b10 l
b10 :"
1C
b10 *
b10 4"
b10 e"
b10 +
b10 5"
b10 d"
b10 H
b10 k
b10 ;"
b100 @
b100 >"
b100 a"
b100 A
b100 ="
b100 `"
b101100 X
b101100 |
b101100 1"
b100100100001000000000000000001 >
b100100100001000000000000000001 }
b100100100001000000000000000001 ~
b100100100001000000000000000001 2"
b11110 %
b11110 ["
b11110 b"
b1 _
b1 ,"
b1 V"
b1 \"
b1 &
b1 ."
b1 X"
b10 P
b10 v
b10 F"
b101 R
b101 u
b101 E"
0"
#1200
0C
0D
b10 '
b10 *"
b10 M"
b1 L
b1 &"
b1 ]"
b101100 Q"
b100 Q
b100 m
b100 9"
b100 _"
b100 S
b100 n
b100 8"
b1 H
b1 k
b1 ;"
b1 -
b1 j
b1 @"
1"
#1248
b100100000111110000000000000000 ?
b100100000111110000000000000000 {
b100100000111110000000000000000 O"
b100100000111110000000000000000 U"
b101100 Y
b101100 z
b101100 P"
b101100 R"
b101100 S"
#1250
b0 J
b0 l
b0 :"
1C
b0 *
b0 4"
b0 e"
b0 +
b0 5"
b0 d"
b0 H
b0 k
b0 ;"
b11111 @
b11111 >"
b11111 a"
b0 A
b0 ="
b0 `"
b110000 X
b110000 |
b110000 1"
b100100000111110000000000000000 >
b100100000111110000000000000000 }
b100100000111110000000000000000 ~
b100100000111110000000000000000 2"
b1 ,
b1 y
b1 G"
b1 G
b1 x
b1 I"
b10 I
b10 w
b10 H"
b100 P
b100 v
b100 F"
b100 R
b100 u
b100 E"
b10 &
b10 ."
b10 X"
b1 ^
b1 Y"
b1 g"
b1 %
b1 ["
b1 b"
0"
#1300
0C
b11 [
b11 h
b11 )"
b11 C"
b1 .
b1 c"
b1 j"
b100 '
b100 *"
b100 M"
b1 N
b1 d
b1 K"
b1 )
b1 +"
b1 L"
b10 O
b10 e
b10 J"
b101100 V
b101100 6"
b101100 N"
b110000 Q"
b11111 Q
b11111 m
b11111 9"
b11111 _"
b0 S
b0 n
b0 8"
b0 -
b0 j
b0 @"
1"
#1348
b100100000111100000000000000000 ?
b100100000111100000000000000000 {
b100100000111100000000000000000 O"
b100100000111100000000000000000 U"
b110000 Y
b110000 z
b110000 P"
b110000 R"
b110000 S"
#1350
1C
b11110 @
b11110 >"
b11110 a"
b110100 X
b110100 |
b110100 1"
b100100000111100000000000000000 >
b100100000111100000000000000000 }
b100100000111100000000000000000 ~
b100100000111100000000000000000 2"
b10 %
b10 ["
b10 b"
b1 (
b1 %"
b1 -"
b11 _
b11 ,"
b11 V"
b11 \"
b100 &
b100 ."
b100 X"
b0 ,
b0 y
b0 G"
b0 G
b0 x
b0 I"
b0 I
b0 w
b0 H"
b11111 P
b11111 v
b11111 F"
b0 R
b0 u
b0 E"
0"
#1400
0C
b0 [
b0 h
b0 )"
b0 C"
b110000 V
b110000 6"
b110000 N"
b11111 '
b11111 *"
b11111 M"
b0 N
b0 d
b0 K"
b0 )
b0 +"
b0 L"
b0 O
b0 e
b0 J"
b11 L
b11 &"
b11 ]"
b110100 Q"
b11110 Q
b11110 m
b11110 9"
b11110 _"
1"
#1448
b100100000111010000000000000000 ?
b100100000111010000000000000000 {
b100100000111010000000000000000 O"
b100100000111010000000000000000 U"
b110100 Y
b110100 z
b110100 P"
b110100 R"
b110100 S"
#1450
1C
b11101 @
b11101 >"
b11101 a"
b111000 X
b111000 |
b111000 1"
b100100000111010000000000000000 >
b100100000111010000000000000000 }
b100100000111010000000000000000 ~
b100100000111010000000000000000 2"
b11110 P
b11110 v
b11110 F"
b0 (
b0 %"
b0 -"
b0 _
b0 ,"
b0 V"
b0 \"
b11111 &
b11111 ."
b11111 X"
b11 ^
b11 Y"
b11 g"
b100 %
b100 ["
b100 b"
0"
#1500
0C
b11 .
b11 c"
b11 j"
b0 L
b0 &"
b0 ]"
b11110 '
b11110 *"
b11110 M"
b110100 V
b110100 6"
b110100 N"
b111000 Q"
b11101 Q
b11101 m
b11101 9"
b11101 _"
1"
#1548
b100000011001000000000000001001 ?
b100000011001000000000000001001 {
b100000011001000000000000001001 O"
b100000011001000000000000001001 U"
b111000 Y
b111000 z
b111000 P"
b111000 R"
b111000 S"
#1550
b11 H
b11 k
b11 ;"
b1001 J
b1001 l
b1001 :"
1C
1D
b11 *
b11 4"
b11 e"
b1001 +
b1001 5"
b1001 d"
b110 c
b110 q
b110 !"
1K
0]
02
1Z
b100 @
b100 >"
b100 a"
b11 A
b11 ="
b11 `"
b111100 X
b111100 |
b111100 1"
b100000011001000000000000001001 >
b100000011001000000000000001001 }
b100000011001000000000000001001 ~
b100000011001000000000000001001 2"
b0 ^
b0 Y"
b0 g"
b11111 %
b11111 ["
b11111 b"
b11110 &
b11110 ."
b11110 X"
b11101 P
b11101 v
b11101 F"
0"
#1600
b0 .
b0 c"
b0 j"
b10100 V
b10100 6"
b10100 N"
b11101 '
b11101 *"
b11101 M"
b111100 Q"
1W
1?"
0F
b100 Q
b100 m
b100 9"
b100 _"
b11 S
b11 n
b11 8"
b1001 -
b1001 j
b1001 @"
1"
#1648
bx ?
bx {
bx O"
bx U"
b111100 Y
b111100 z
b111100 P"
b111100 R"
b111100 S"
#1650
bx H
bx k
bx ;"
bx J
bx l
bx :"
xC
xD
bx *
bx 4"
bx e"
bx +
bx 5"
bx d"
bx @
bx >"
bx a"
bx A
bx ="
bx `"
b1000000 X
b1000000 |
b1000000 1"
bx >
bx }
bx ~
bx 2"
b1001 ,
b1001 y
b1001 G"
b11 G
b11 x
b11 I"
b1001 I
b1001 w
b1001 H"
b100 P
b100 v
b100 F"
b11 R
b11 u
b11 E"
0\
b110 b
b110 f
b110 r
b110 A"
01
b11101 &
b11101 ."
b11101 X"
b11110 %
b11110 ["
b11110 b"
0"
#1700
b110 [
b110 h
b110 )"
b110 C"
b100 '
b100 *"
b100 M"
b11 N
b11 d
b11 K"
b11 )
b11 +"
b11 L"
b1001 O
b1001 e
b1001 J"
bx V
bx 6"
bx N"
b10100 Q"
xW
x?"
xF
bx U
bx o
bx 7"
bx ^"
bx Q
bx m
bx 9"
bx _"
bx S
bx n
bx 8"
bx -
bx j
bx @"
1"
#1748
b1000100010100000100000 ?
b1000100010100000100000 {
b1000100010100000100000 O"
b1000100010100000100000 U"
b10100 Y
b10100 z
b10100 P"
b10100 R"
b10100 S"
#1750
b1 H
b1 k
b1 ;"
b1 J
b1 l
b1 :"
1C
1D
b1 *
b1 4"
b1 e"
b1 +
b1 5"
b1 d"
b10 c
b10 q
b10 !"
0Z
0K
12
14
b10 @
b10 >"
b10 a"
b1 A
b1 ="
b1 `"
b11000 X
b11000 |
b11000 1"
b1000100010100000100000 >
b1000100010100000100000 }
b1000100010100000100000 ~
b1000100010100000100000 2"
b11101 %
b11101 ["
b11101 b"
b11 (
b11 %"
b11 -"
b110 _
b110 ,"
b110 V"
b110 \"
b100 &
b100 ."
b100 X"
00
bx ,
bx y
bx G"
bx G
bx x
bx I"
bx I
bx w
bx H"
bx T
bx t
bx D"
bx P
bx v
bx F"
bx R
bx u
bx E"
0"
